%YAML 1.1
%TAG !u! tag:unity3d.com,2011:
--- !u!114 &11400000
MonoBehaviour:
  m_ObjectHideFlags: 0
  m_CorrespondingSourceObject: {fileID: 0}
  m_PrefabInstance: {fileID: 0}
  m_PrefabAsset: {fileID: 0}
  m_GameObject: {fileID: 0}
  m_Enabled: 1
  m_EditorHideFlags: 0
  m_Script: {fileID: 11500000, guid: a316df5d0d242de4eb5bdaa82cb41abf, type: 3}
  m_Name: BattleEncounter3
  m_EditorClassIdentifier: 
  EncounterName: EncounterWinter
  Id: 0
  EndType: 1
  HP: 25
  ATK: 0
  STM: 0
  Zones:
  - anchor: {x: 6, y: 24}
    size: {x: 18, y: 3}
    prefabSize: {x: 2, y: 2}
    Prefabs:
    - {fileID: 5557085733028038776, guid: fa3ae1904fc686d4182fcd76e7e18335, type: 3}
    - {fileID: 7933906838187748355, guid: 9ad7b2c01a762f742ab24bc16f8aea05, type: 3}
    - {fileID: 7329786043700028877, guid: 74b61e2f6a7e5ae41a309249c857c8ba, type: 3}
  - anchor: {x: 6, y: 24}
    size: {x: 18, y: 3}
    prefabSize: {x: 2, y: 2}
    Prefabs:
    - {fileID: 5557085733028038776, guid: fa3ae1904fc686d4182fcd76e7e18335, type: 3}
    - {fileID: 7933906838187748355, guid: 9ad7b2c01a762f742ab24bc16f8aea05, type: 3}
    - {fileID: 7329786043700028877, guid: 74b61e2f6a7e5ae41a309249c857c8ba, type: 3}
  - anchor: {x: 6, y: 24}
    size: {x: 18, y: 3}
    prefabSize: {x: 2, y: 2}
    Prefabs:
    - {fileID: 5557085733028038776, guid: fa3ae1904fc686d4182fcd76e7e18335, type: 3}
    - {fileID: 7933906838187748355, guid: 9ad7b2c01a762f742ab24bc16f8aea05, type: 3}
    - {fileID: 7329786043700028877, guid: 74b61e2f6a7e5ae41a309249c857c8ba, type: 3}
  - anchor: {x: 24, y: 6}
    size: {x: 3, y: 18}
    prefabSize: {x: 2, y: 2}
    Prefabs:
    - {fileID: 5557085733028038776, guid: fa3ae1904fc686d4182fcd76e7e18335, type: 3}
    - {fileID: 7933906838187748355, guid: 9ad7b2c01a762f742ab24bc16f8aea05, type: 3}
    - {fileID: 7329786043700028877, guid: 74b61e2f6a7e5ae41a309249c857c8ba, type: 3}
  - anchor: {x: 24, y: 6}
    size: {x: 3, y: 18}
    prefabSize: {x: 2, y: 2}
    Prefabs:
    - {fileID: 5557085733028038776, guid: fa3ae1904fc686d4182fcd76e7e18335, type: 3}
    - {fileID: 7933906838187748355, guid: 9ad7b2c01a762f742ab24bc16f8aea05, type: 3}
    - {fileID: 7329786043700028877, guid: 74b61e2f6a7e5ae41a309249c857c8ba, type: 3}
  - anchor: {x: 24, y: 6}
    size: {x: 3, y: 18}
    prefabSize: {x: 2, y: 2}
    Prefabs:
    - {fileID: 5557085733028038776, guid: fa3ae1904fc686d4182fcd76e7e18335, type: 3}
    - {fileID: 7933906838187748355, guid: 9ad7b2c01a762f742ab24bc16f8aea05, type: 3}
    - {fileID: 7329786043700028877, guid: 74b61e2f6a7e5ae41a309249c857c8ba, type: 3}
  SmallPrefabs:
  - {fileID: 6971342027114040685, guid: 1dea82b49cca1af4abf377b4f5e9a355, type: 3}
  - {fileID: 3059367589609345759, guid: e22b639e57ffb3848bb31943e56a4ea8, type: 3}
  SmallPrefabsCount: 20
  Mobs:
  - {fileID: 2069985340056617882, guid: 90c92dc34fb16384b840b21616b792f0, type: 3}
  - {fileID: 3510174642851976151, guid: 588dc193492c5da4899db5913e90e5c3, type: 3}
  MobsZoneAnchor: {x: -10, y: 10}
  MobsZoneSize: {x: 20, y: 20}
