%YAML 1.1
%TAG !u! tag:unity3d.com,2011:
--- !u!114 &11400000
MonoBehaviour:
  m_ObjectHideFlags: 0
  m_CorrespondingSourceObject: {fileID: 0}
  m_PrefabInstance: {fileID: 0}
  m_PrefabAsset: {fileID: 0}
  m_GameObject: {fileID: 0}
  m_Enabled: 1
  m_EditorHideFlags: 0
  m_Script: {fileID: 11500000, guid: 2fff357a474358d46a1ea277936c8ed8, type: 3}
  m_Name: Winter
  m_EditorClassIdentifier: 
  Key: Winter
  Progress: 0.09
  Encounters:
  - {fileID: 11400000, guid: af5235a700831dd45aea8c5473924486, type: 2}
  - {fileID: 11400000, guid: 26282a48e1a68b94d873cf148e3d1724, type: 2}
  - {fileID: 11400000, guid: 589757a16f6a5e640866a629ff43895a, type: 2}
  - {fileID: 11400000, guid: 2da992a9c4b6ba54ca6a061ce9e17d9c, type: 2}
  - {fileID: 11400000, guid: bbd166dc52db672449e51e47fbd27940, type: 2}
