%YAML 1.1
%TAG !u! tag:unity3d.com,2011:
--- !u!114 &11400000
MonoBehaviour:
  m_ObjectHideFlags: 0
  m_CorrespondingSourceObject: {fileID: 0}
  m_PrefabInstance: {fileID: 0}
  m_PrefabAsset: {fileID: 0}
  m_GameObject: {fileID: 0}
  m_Enabled: 1
  m_EditorHideFlags: 0
  m_Script: {fileID: 11500000, guid: a316df5d0d242de4eb5bdaa82cb41abf, type: 3}
  m_Name: BattleEncounter32
  m_EditorClassIdentifier: 
  EncounterName: EncounterWinter2
  Id: 7
  EndType: 1
  HP: 0
  ATK: 0
  STM: 0
  Zones:
  - anchor: {x: 6, y: 24}
    size: {x: 18, y: 3}
    prefabSize: {x: 2, y: 2}
    Prefabs:
    - {fileID: 7933906838187748355, guid: 9ad7b2c01a762f742ab24bc16f8aea05, type: 3}
  - anchor: {x: 6, y: 24}
    size: {x: 18, y: 3}
    prefabSize: {x: 2, y: 2}
    Prefabs:
    - {fileID: 7933906838187748355, guid: 9ad7b2c01a762f742ab24bc16f8aea05, type: 3}
  - anchor: {x: 6, y: 24}
    size: {x: 18, y: 3}
    prefabSize: {x: 2, y: 2}
    Prefabs:
    - {fileID: 7933906838187748355, guid: 9ad7b2c01a762f742ab24bc16f8aea05, type: 3}
  - anchor: {x: 24, y: 6}
    size: {x: 3, y: 18}
    prefabSize: {x: 2, y: 2}
    Prefabs:
    - {fileID: 7933906838187748355, guid: 9ad7b2c01a762f742ab24bc16f8aea05, type: 3}
  - anchor: {x: 24, y: 6}
    size: {x: 3, y: 18}
    prefabSize: {x: 2, y: 2}
    Prefabs:
    - {fileID: 7933906838187748355, guid: 9ad7b2c01a762f742ab24bc16f8aea05, type: 3}
  - anchor: {x: 24, y: 6}
    size: {x: 3, y: 18}
    prefabSize: {x: 2, y: 2}
    Prefabs:
    - {fileID: 7933906838187748355, guid: 9ad7b2c01a762f742ab24bc16f8aea05, type: 3}
  SmallPrefabs:
  - {fileID: 6971342027114040685, guid: 1dea82b49cca1af4abf377b4f5e9a355, type: 3}
  - {fileID: 3059367589609345759, guid: e22b639e57ffb3848bb31943e56a4ea8, type: 3}
  SmallPrefabsCount: 28
  Mobs:
  - {fileID: 3510174642851976151, guid: 588dc193492c5da4899db5913e90e5c3, type: 3}
  - {fileID: 1205882672291611590, guid: 262087cdd2081ca41990b1dbde9c28a0, type: 3}
  - {fileID: 9168755072400384100, guid: bf86824dd670e6d4bb15f3512e79a2c3, type: 3}
  - {fileID: 2507005476228462359, guid: 7abbe5da0367e9f498268105fc0862ca, type: 3}
  - {fileID: 2507005476228462359, guid: 7abbe5da0367e9f498268105fc0862ca, type: 3}
  MobsZoneAnchor: {x: -10, y: 10}
  MobsZoneSize: {x: 20, y: 20}
