%YAML 1.1
%TAG !u! tag:unity3d.com,2011:
--- !u!1 &116907507184093811
GameObject:
  m_ObjectHideFlags: 0
  m_CorrespondingSourceObject: {fileID: 0}
  m_PrefabInstance: {fileID: 0}
  m_PrefabAsset: {fileID: 0}
  serializedVersion: 6
  m_Component:
  - component: {fileID: 7145755969743885304}
  - component: {fileID: 3414967644805937719}
  m_Layer: 0
  m_Name: Sounds
  m_TagString: Untagged
  m_Icon: {fileID: 0}
  m_NavMeshLayer: 0
  m_StaticEditorFlags: 0
  m_IsActive: 1
--- !u!4 &7145755969743885304
Transform:
  m_ObjectHideFlags: 0
  m_CorrespondingSourceObject: {fileID: 0}
  m_PrefabInstance: {fileID: 0}
  m_PrefabAsset: {fileID: 0}
  m_GameObject: {fileID: 116907507184093811}
  m_LocalRotation: {x: 0, y: 0, z: 0, w: 1}
  m_LocalPosition: {x: 40.537804, y: 2.261995, z: 5.452236}
  m_LocalScale: {x: 1, y: 1, z: 1}
  m_Children: []
  m_Father: {fileID: 0}
  m_RootOrder: 0
  m_LocalEulerAnglesHint: {x: 0, y: 0, z: 0}
--- !u!114 &3414967644805937719
MonoBehaviour:
  m_ObjectHideFlags: 0
  m_CorrespondingSourceObject: {fileID: 0}
  m_PrefabInstance: {fileID: 0}
  m_PrefabAsset: {fileID: 0}
  m_GameObject: {fileID: 116907507184093811}
  m_Enabled: 1
  m_EditorHideFlags: 0
  m_Script: {fileID: 11500000, guid: 971af22d7323d354ea06c8265bb38aa5, type: 3}
  m_Name: 
  m_EditorClassIdentifier: 
  ambient_autumn: {fileID: 8300000, guid: d5dda652ff20b104cbc2adef6edb88f3, type: 3}
  ambient_spring: {fileID: 8300000, guid: 14ac08b34b8db0b4b826d7c8df3228f6, type: 3}
  ambient_summer: {fileID: 8300000, guid: ffc416dcd2026f34188a5142babbc129, type: 3}
  ambient_winter: {fileID: 8300000, guid: f601ec1d6a0403c4a92aa01fd34f1a5d, type: 3}
  snd_enemy_footstep_ground1: {fileID: 8300000, guid: 5f3ef780ad79a0447844a8980bbb8cae,
    type: 3}
  snd_enemy_footstep_ground2: {fileID: 8300000, guid: 3d9eee442a4e7ec479577811cd8cb09c,
    type: 3}
  snd_enemy_footstep_ground3: {fileID: 8300000, guid: 297514acf288c004596f7fc7478af2b8,
    type: 3}
  snd_enemy_footstep_ground4: {fileID: 8300000, guid: 7fa43890e1b9bab4ca81ba872c209a49,
    type: 3}
  snd_enemy_footstep_snow1: {fileID: 8300000, guid: d28de925421998543b421ba08d33b253,
    type: 3}
  snd_enemy_footstep_snow2: {fileID: 8300000, guid: a6a09148123ade845b08ce0e21764ad0,
    type: 3}
  snd_enemy_footstep_snow3: {fileID: 8300000, guid: d033e264448de5147a24b3fe46fdc7a3,
    type: 3}
  snd_enemy_footstep_snow4: {fileID: 8300000, guid: c286fb3008512ea49985402e1c345fee,
    type: 3}
  snd_enemy_mag_attack1: {fileID: 8300000, guid: 3816dd62d86d9e243bed7574459ddfc3,
    type: 3}
  snd_enemy_mag_attack2: {fileID: 8300000, guid: bd7562c5c8ba57c46829533ea6b2d7c0,
    type: 3}
  snd_enemy_mag_attack3: {fileID: 8300000, guid: dabc57031831e784c89e6d2635433ae3,
    type: 3}
  snd_enemy_mag_hit1: {fileID: 8300000, guid: 351000ec4d6d76740ad4ce778442c472, type: 3}
  snd_enemy_mag_hit2: {fileID: 8300000, guid: 2f9632978ee2124449ef5f8ffd1c0326, type: 3}
  snd_enemy_mag_hit3: {fileID: 8300000, guid: 988821c1521f0bb4aa1b79c7bfd0bfdc, type: 3}
  snd_enemy_shooter_attack1: {fileID: 8300000, guid: 9c131f4d4cb476b49909759fc7978b1e,
    type: 3}
  snd_enemy_shooter_attack2: {fileID: 8300000, guid: cdbebfc9e14b06043818f6f0af7fc8e4,
    type: 3}
  snd_enemy_shooter_attack3: {fileID: 8300000, guid: ffa6c1a9916ded14d88712c926e0d76b,
    type: 3}
  snd_enemy_shooter_hit1: {fileID: 8300000, guid: bff720ae8b23e7344bbfd880cce87bc1,
    type: 3}
  snd_enemy_shooter_hit2: {fileID: 8300000, guid: 10b3e06cc7f13f64f80613496ca61a94,
    type: 3}
  snd_enemy_shooter_hit3: {fileID: 8300000, guid: afb186c18c8273445b4c8fceb9df9aa9,
    type: 3}
  snd_enemy_tank_attack1: {fileID: 8300000, guid: 824747d0cf99401438792e3d7cbbfdb0,
    type: 3}
  snd_enemy_tank_attack2: {fileID: 8300000, guid: 0bed3fb90bd8cfa468b1558c8b9600c6,
    type: 3}
  snd_enemy_tank_attack3: {fileID: 8300000, guid: 5bfac7e96c96f54409d05ea76b465536,
    type: 3}
  snd_enemy_tank_hit1: {fileID: 8300000, guid: 03c63b58e9d4442448c2467aa18a093a, type: 3}
  snd_enemy_tank_hit2: {fileID: 8300000, guid: 54550386b68f6a145902f3c1693138ad, type: 3}
  snd_enemy_tank_hit3: {fileID: 8300000, guid: 3fc041a3c65ac8042964e7d3acf9135d, type: 3}
  snd_enemy_tank_shield_impact1: {fileID: 8300000, guid: 3186fa37e90fb4546bc98bbc908075a9,
    type: 3}
  snd_enemy_tank_shield_impact2: {fileID: 8300000, guid: d7f56688bd69b7d4d864274d56f66e13,
    type: 3}
  snd_enemy_tank_shield_impact3: {fileID: 8300000, guid: 639f024af2c176948af4d3d5518012a6,
    type: 3}
  snd_enemy_warrior_attack1: {fileID: 8300000, guid: 789be0ae322a3c14da9e20046b3f0a38,
    type: 3}
  snd_enemy_warrior_attack2: {fileID: 8300000, guid: d9896882600ac5740b7ad4d3488aa60c,
    type: 3}
  snd_enemy_warrior_attack3: {fileID: 8300000, guid: 12dfb3b5ad1c6514b805067aa2bd2f28,
    type: 3}
  snd_enemy_warrior_hit1: {fileID: 8300000, guid: 42b252e08b2aa6e428bd6b8cbef34cc8,
    type: 3}
  snd_enemy_warrior_hit2: {fileID: 8300000, guid: c29de9c741e41c94788a64fc12e39744,
    type: 3}
  snd_enemy_warrior_hit3: {fileID: 8300000, guid: e0397063d87f97744b8fcd9560930d7b,
    type: 3}
  snd_player_damage1: {fileID: 8300000, guid: 0c8466b56c676ae4fa2ecbdbdce43bb3, type: 3}
  snd_player_damage2: {fileID: 8300000, guid: 85e16305da8f3d146af86b7d2972916f, type: 3}
  snd_player_damage3: {fileID: 8300000, guid: 31950ca31d0a6e140b26a1ed32aaaa90, type: 3}
  snd_player_damage4: {fileID: 8300000, guid: 0d8a6ed8286352c41b741d146c61afef, type: 3}
  snd_player_damage5: {fileID: 8300000, guid: 99fab0e49bc755c41a2f931c71dbe472, type: 3}
  snd_player_death1: {fileID: 8300000, guid: f925377cf4e317d44b56329a01672595, type: 3}
  snd_player_death2: {fileID: 8300000, guid: 3a74c4f6708231744b6fb3700b57a80a, type: 3}
  snd_player_death3: {fileID: 8300000, guid: 7896d2925fa4a424389d470a0f957a4f, type: 3}
  snd_player_death4: {fileID: 8300000, guid: ee5b2df32ff19be4286b0ccfc957efb1, type: 3}
  snd_player_death5: {fileID: 8300000, guid: 8f3797c3bb2975540886eb19903c8980, type: 3}
  snd_player_fire1: {fileID: 8300000, guid: 174c73bab8d798840b3ea764afab6479, type: 3}
  snd_player_fire2: {fileID: 8300000, guid: 66ca46421f2178343a3232d3c6e36fe2, type: 3}
  snd_player_fire3: {fileID: 8300000, guid: 39819cdf033dd6e4d9d7709b320a9fe0, type: 3}
  snd_player_fire4: {fileID: 8300000, guid: d7915777d5941ab41881ee1c78a4f12f, type: 3}
  snd_player_footstep_ground1: {fileID: 8300000, guid: 754c1ac5f9856b048ba16bccf045779c,
    type: 3}
  snd_player_footstep_ground2: {fileID: 8300000, guid: a0cd5565b877dd748a402e8481d085ad,
    type: 3}
  snd_player_footstep_ground3: {fileID: 8300000, guid: f4d34d1bd9ce7f942824a9b079d7ebe3,
    type: 3}
  snd_player_footstep_ground4: {fileID: 8300000, guid: 43e1a249fa8bcc744ab5848a1c36dd45,
    type: 3}
  snd_player_footstep_snow1: {fileID: 8300000, guid: 50e1b45b1baeb5a49a5767e8f3c70177,
    type: 3}
  snd_player_footstep_snow2: {fileID: 8300000, guid: 4631113b450e11840ba7f8f7f7f53ce3,
    type: 3}
  snd_player_footstep_snow3: {fileID: 8300000, guid: b2aa974ceee43d74686a6df7dedebf4e,
    type: 3}
  snd_player_footstep_snow4: {fileID: 8300000, guid: bd7fec271b4ef774183493f1866b55f0,
    type: 3}
  snd_player_hit1: {fileID: 8300000, guid: 7e79a4a38b63e1247a971b5f4fd30f15, type: 3}
  snd_player_hit2: {fileID: 8300000, guid: d6175518368886843a0ea18ca26f4e2d, type: 3}
  snd_player_hit3: {fileID: 8300000, guid: 4cc1c528ac090c24a81fafab26091569, type: 3}
  snd_player_hit4: {fileID: 8300000, guid: 18c14fdee01c5b24a81df7e3f0a3b912, type: 3}
  snd_player_move_roll1: {fileID: 8300000, guid: 481e8ff8a2fa26545a399bd72eac7b6b,
    type: 3}
  snd_player_move_roll2: {fileID: 8300000, guid: b1b53b3b22356f94bba6439b17788a0c,
    type: 3}
  snd_player_move_roll3: {fileID: 8300000, guid: 2cbf1e3e2c73e524dba388288602b887,
    type: 3}
  snd_menu_car_ride: {fileID: 8300000, guid: dc9981e7cb707774dac4e633df9df7dd, type: 3}
  snd_menu_car_start: {fileID: 8300000, guid: c5f85d20d6d8b4d4cae3e8e6cfe8cc0d, type: 3}
  snd_menu_car_stay: {fileID: 8300000, guid: 74fd813fa4446f64aa3665dcefc969bb, type: 3}
  snd_menu_car_stop: {fileID: 8300000, guid: 44b403ec8ddd5a04489d073642fc2834, type: 3}
  snd_menu_click: {fileID: 8300000, guid: bbfafb0e619455d4b998007bbe666d2b, type: 3}
  snd_menu_click2: {fileID: 8300000, guid: f415d17cdacada74d8bcf883b6567e63, type: 3}
  snd_menu_idle_dialog_notification: {fileID: 8300000, guid: 6dfffee399068d249a61d514196d44fa,
    type: 3}
  snd_menu_ui_map: {fileID: 8300000, guid: f3842681e24a0014f87f24b05607a673, type: 3}
  snd_menu_window_appear: {fileID: 8300000, guid: 4939a292c4d8c6344b21ee3f06a2a4a7,
    type: 3}
  snd_menu_window_disappear: {fileID: 8300000, guid: 4b1f965665991254d9abc8f7b36a86cb,
    type: 3}
  music_gameplay_level_complete: {fileID: 8300000, guid: f9b5a2aef5d33814783cbc44c1d64231,
    type: 3}
  music_gameplay_theme1: {fileID: 8300000, guid: 609f1753538c0a64c863d442ae31fc59,
    type: 3}
  music_gameplay_theme2: {fileID: 8300000, guid: 483f7414893356541acdc6e03281dd8d,
    type: 3}
  music_gameplay_theme3: {fileID: 8300000, guid: 956adebc6c7fa2a45b85114eb2491d52,
    type: 3}
  music_gameplay_theme4: {fileID: 8300000, guid: a3b4237bcc69f9c4fb7af718c4d8b6ef,
    type: 3}
  music_loadingScreen_theme: {fileID: 8300000, guid: e9c711f04d5e547439e5c6672c5b874e,
    type: 3}
  music_main_menu_theme: {fileID: 8300000, guid: b3ce29a827ee5d04ea12b376d7c63106,
    type: 3}
