%YAML 1.1
%TAG !u! tag:unity3d.com,2011:
--- !u!1 &3210565693953382873
GameObject:
  m_ObjectHideFlags: 0
  m_CorrespondingSourceObject: {fileID: 0}
  m_PrefabInstance: {fileID: 0}
  m_PrefabAsset: {fileID: 0}
  serializedVersion: 6
  m_Component:
  - component: {fileID: 3210565693953382872}
  - component: {fileID: 7599460074974089748}
  - component: {fileID: 4094454901769749361}
  m_Layer: 10
  m_Name: MeleeWeapon
  m_TagString: Untagged
  m_Icon: {fileID: 0}
  m_NavMeshLayer: 0
  m_StaticEditorFlags: 0
  m_IsActive: 1
--- !u!4 &3210565693953382872
Transform:
  m_ObjectHideFlags: 0
  m_CorrespondingSourceObject: {fileID: 0}
  m_PrefabInstance: {fileID: 0}
  m_PrefabAsset: {fileID: 0}
  m_GameObject: {fileID: 3210565693953382873}
  m_LocalRotation: {x: -0, y: -0, z: -0, w: 1}
  m_LocalPosition: {x: 0, y: 0, z: 0}
  m_LocalScale: {x: 1, y: 1, z: 1}
  m_Children:
  - {fileID: 931641908111355200}
  m_Father: {fileID: 0}
  m_RootOrder: 0
  m_LocalEulerAnglesHint: {x: 0, y: 0, z: 0}
--- !u!65 &7599460074974089748
BoxCollider:
  m_ObjectHideFlags: 0
  m_CorrespondingSourceObject: {fileID: 0}
  m_PrefabInstance: {fileID: 0}
  m_PrefabAsset: {fileID: 0}
  m_GameObject: {fileID: 3210565693953382873}
  m_Material: {fileID: 0}
  m_IsTrigger: 1
  m_Enabled: 1
  serializedVersion: 2
  m_Size: {x: 0.29323584, y: 0.06167668, z: 1.2126775}
  m_Center: {x: -0.000095136464, y: 0.016672328, z: 0.4387952}
--- !u!114 &4094454901769749361
MonoBehaviour:
  m_ObjectHideFlags: 0
  m_CorrespondingSourceObject: {fileID: 0}
  m_PrefabInstance: {fileID: 0}
  m_PrefabAsset: {fileID: 0}
  m_GameObject: {fileID: 3210565693953382873}
  m_Enabled: 1
  m_EditorHideFlags: 0
  m_Script: {fileID: 11500000, guid: 3dd311dd4ebc4f48bc25bcc33d15d7ce, type: 3}
  m_Name: 
  m_EditorClassIdentifier: 
  _characterAnimator: {fileID: 0}
  _weaponAnimator: {fileID: 0}
  perkController: {fileID: 0}
  _characterAttackTrigger: MeleeAttack
  _weaponAttackTrigger: Attack
  _damage: 2
  _attackDelay: 0.3
--- !u!1001 &5302829886333879898
PrefabInstance:
  m_ObjectHideFlags: 0
  serializedVersion: 2
  m_Modification:
    m_TransformParent: {fileID: 3210565693953382872}
    m_Modifications:
    - target: {fileID: -927199367670048503, guid: 8785481fc247a94489b0b276ab997fc0,
        type: 3}
      propertyPath: m_Name
      value: sword
      objectReference: {fileID: 0}
    - target: {fileID: -927199367670048503, guid: 8785481fc247a94489b0b276ab997fc0,
        type: 3}
      propertyPath: m_Layer
      value: 10
      objectReference: {fileID: 0}
    - target: {fileID: -4216859302048453862, guid: 8785481fc247a94489b0b276ab997fc0,
        type: 3}
      propertyPath: m_LocalPosition.x
      value: -0.008
      objectReference: {fileID: 0}
    - target: {fileID: -4216859302048453862, guid: 8785481fc247a94489b0b276ab997fc0,
        type: 3}
      propertyPath: m_LocalPosition.y
      value: 0.009
      objectReference: {fileID: 0}
    - target: {fileID: -4216859302048453862, guid: 8785481fc247a94489b0b276ab997fc0,
        type: 3}
      propertyPath: m_LocalPosition.z
      value: -0.006
      objectReference: {fileID: 0}
    - target: {fileID: -4216859302048453862, guid: 8785481fc247a94489b0b276ab997fc0,
        type: 3}
      propertyPath: m_LocalRotation.x
      value: 0
      objectReference: {fileID: 0}
    - target: {fileID: -4216859302048453862, guid: 8785481fc247a94489b0b276ab997fc0,
        type: 3}
      propertyPath: m_LocalRotation.y
      value: 0
      objectReference: {fileID: 0}
    - target: {fileID: -4216859302048453862, guid: 8785481fc247a94489b0b276ab997fc0,
        type: 3}
      propertyPath: m_LocalRotation.z
      value: 0
      objectReference: {fileID: 0}
    - target: {fileID: -4216859302048453862, guid: 8785481fc247a94489b0b276ab997fc0,
        type: 3}
      propertyPath: m_LocalRotation.w
      value: 1
      objectReference: {fileID: 0}
    - target: {fileID: -4216859302048453862, guid: 8785481fc247a94489b0b276ab997fc0,
        type: 3}
      propertyPath: m_RootOrder
      value: 0
      objectReference: {fileID: 0}
    - target: {fileID: -4216859302048453862, guid: 8785481fc247a94489b0b276ab997fc0,
        type: 3}
      propertyPath: m_LocalEulerAnglesHint.x
      value: 0
      objectReference: {fileID: 0}
    - target: {fileID: -4216859302048453862, guid: 8785481fc247a94489b0b276ab997fc0,
        type: 3}
      propertyPath: m_LocalEulerAnglesHint.y
      value: 0
      objectReference: {fileID: 0}
    - target: {fileID: -4216859302048453862, guid: 8785481fc247a94489b0b276ab997fc0,
        type: 3}
      propertyPath: m_LocalEulerAnglesHint.z
      value: 0
      objectReference: {fileID: 0}
    - target: {fileID: -4216859302048453862, guid: 8785481fc247a94489b0b276ab997fc0,
        type: 3}
      propertyPath: m_LocalScale.x
      value: 1
      objectReference: {fileID: 0}
    - target: {fileID: -4216859302048453862, guid: 8785481fc247a94489b0b276ab997fc0,
        type: 3}
      propertyPath: m_LocalScale.y
      value: 1
      objectReference: {fileID: 0}
    - target: {fileID: -4216859302048453862, guid: 8785481fc247a94489b0b276ab997fc0,
        type: 3}
      propertyPath: m_LocalScale.z
      value: 1
      objectReference: {fileID: 0}
    m_RemovedComponents: []
  m_SourcePrefab: {fileID: 100100000, guid: 8785481fc247a94489b0b276ab997fc0, type: 3}
--- !u!4 &931641908111355200 stripped
Transform:
  m_CorrespondingSourceObject: {fileID: -4216859302048453862, guid: 8785481fc247a94489b0b276ab997fc0,
    type: 3}
  m_PrefabInstance: {fileID: 5302829886333879898}
  m_PrefabAsset: {fileID: 0}
