%YAML 1.1
%TAG !u! tag:unity3d.com,2011:
--- !u!1 &8638520017495457398
GameObject:
  m_ObjectHideFlags: 0
  m_CorrespondingSourceObject: {fileID: 0}
  m_PrefabInstance: {fileID: 0}
  m_PrefabAsset: {fileID: 0}
  serializedVersion: 6
  m_Component:
  - component: {fileID: 380202206621865345}
  m_Layer: 0
  m_Name: grass
  m_TagString: Untagged
  m_Icon: {fileID: 0}
  m_NavMeshLayer: 0
  m_StaticEditorFlags: 0
  m_IsActive: 1
--- !u!4 &380202206621865345
Transform:
  m_ObjectHideFlags: 0
  m_CorrespondingSourceObject: {fileID: 0}
  m_PrefabInstance: {fileID: 0}
  m_PrefabAsset: {fileID: 0}
  m_GameObject: {fileID: 8638520017495457398}
  m_LocalRotation: {x: 0, y: 0, z: 0, w: 1}
  m_LocalPosition: {x: 0, y: -1, z: 0}
  m_LocalScale: {x: 1, y: 1, z: 1}
  m_Children:
  - {fileID: 977108729212984006}
  m_Father: {fileID: 0}
  m_RootOrder: 0
  m_LocalEulerAnglesHint: {x: 0, y: 0, z: 0}
--- !u!1001 &5257345603770642908
PrefabInstance:
  m_ObjectHideFlags: 0
  serializedVersion: 2
  m_Modification:
    m_TransformParent: {fileID: 380202206621865345}
    m_Modifications:
    - target: {fileID: -927199367670048503, guid: f9cd2bc8bcd566a439972d5f795f4dfb,
        type: 3}
      propertyPath: m_Name
      value: grass_01
      objectReference: {fileID: 0}
    - target: {fileID: -4216859302048453862, guid: f9cd2bc8bcd566a439972d5f795f4dfb,
        type: 3}
      propertyPath: m_LocalPosition.x
      value: 0
      objectReference: {fileID: 0}
    - target: {fileID: -4216859302048453862, guid: f9cd2bc8bcd566a439972d5f795f4dfb,
        type: 3}
      propertyPath: m_LocalPosition.y
      value: -0.5
      objectReference: {fileID: 0}
    - target: {fileID: -4216859302048453862, guid: f9cd2bc8bcd566a439972d5f795f4dfb,
        type: 3}
      propertyPath: m_LocalPosition.z
      value: 0
      objectReference: {fileID: 0}
    - target: {fileID: -4216859302048453862, guid: f9cd2bc8bcd566a439972d5f795f4dfb,
        type: 3}
      propertyPath: m_LocalRotation.x
      value: 0.020193404
      objectReference: {fileID: 0}
    - target: {fileID: -4216859302048453862, guid: f9cd2bc8bcd566a439972d5f795f4dfb,
        type: 3}
      propertyPath: m_LocalRotation.y
      value: 0.7068184
      objectReference: {fileID: 0}
    - target: {fileID: -4216859302048453862, guid: f9cd2bc8bcd566a439972d5f795f4dfb,
        type: 3}
      propertyPath: m_LocalRotation.z
      value: 0.70681846
      objectReference: {fileID: 0}
    - target: {fileID: -4216859302048453862, guid: f9cd2bc8bcd566a439972d5f795f4dfb,
        type: 3}
      propertyPath: m_LocalRotation.w
      value: -0.020193374
      objectReference: {fileID: 0}
    - target: {fileID: -4216859302048453862, guid: f9cd2bc8bcd566a439972d5f795f4dfb,
        type: 3}
      propertyPath: m_RootOrder
      value: 0
      objectReference: {fileID: 0}
    - target: {fileID: -4216859302048453862, guid: f9cd2bc8bcd566a439972d5f795f4dfb,
        type: 3}
      propertyPath: m_LocalEulerAnglesHint.x
      value: -90.00001
      objectReference: {fileID: 0}
    - target: {fileID: -4216859302048453862, guid: f9cd2bc8bcd566a439972d5f795f4dfb,
        type: 3}
      propertyPath: m_LocalEulerAnglesHint.y
      value: 0
      objectReference: {fileID: 0}
    - target: {fileID: -4216859302048453862, guid: f9cd2bc8bcd566a439972d5f795f4dfb,
        type: 3}
      propertyPath: m_LocalEulerAnglesHint.z
      value: 183.273
      objectReference: {fileID: 0}
    - target: {fileID: -4216859302048453862, guid: f9cd2bc8bcd566a439972d5f795f4dfb,
        type: 3}
      propertyPath: m_LocalScale.x
      value: 1
      objectReference: {fileID: 0}
    - target: {fileID: -4216859302048453862, guid: f9cd2bc8bcd566a439972d5f795f4dfb,
        type: 3}
      propertyPath: m_LocalScale.y
      value: 1
      objectReference: {fileID: 0}
    - target: {fileID: -4216859302048453862, guid: f9cd2bc8bcd566a439972d5f795f4dfb,
        type: 3}
      propertyPath: m_LocalScale.z
      value: 1
      objectReference: {fileID: 0}
    - target: {fileID: -1504981713932161579, guid: f9cd2bc8bcd566a439972d5f795f4dfb,
        type: 3}
      propertyPath: m_Materials.Array.data[0]
      value: 
      objectReference: {fileID: 2100000, guid: 7e5e0d2858984a94c898229e557414fa, type: 2}
    m_RemovedComponents: []
  m_SourcePrefab: {fileID: 100100000, guid: f9cd2bc8bcd566a439972d5f795f4dfb, type: 3}
--- !u!4 &977108729212984006 stripped
Transform:
  m_CorrespondingSourceObject: {fileID: -4216859302048453862, guid: f9cd2bc8bcd566a439972d5f795f4dfb,
    type: 3}
  m_PrefabInstance: {fileID: 5257345603770642908}
  m_PrefabAsset: {fileID: 0}
