%YAML 1.1
%TAG !u! tag:unity3d.com,2011:
--- !u!208 &3020483230683079987
NavMeshObstacle:
  m_ObjectHideFlags: 0
  m_CorrespondingSourceObject: {fileID: 0}
  m_PrefabInstance: {fileID: 0}
  m_PrefabAsset: {fileID: 0}
  m_GameObject: {fileID: 8743317100401304778}
  m_Enabled: 1
  serializedVersion: 3
  m_Shape: 1
  m_Extents: {x: 0.106000006, y: 0.104, z: 0.065000005}
  m_MoveThreshold: 0.1
  m_Carve: 0
  m_CarveOnlyStationary: 1
  m_Center: {x: -0.006, y: -0.008, z: 0.002}
  m_TimeToStationary: 0.5
--- !u!64 &3391894299537491709
MeshCollider:
  m_ObjectHideFlags: 0
  m_CorrespondingSourceObject: {fileID: 0}
  m_PrefabInstance: {fileID: 0}
  m_PrefabAsset: {fileID: 0}
  m_GameObject: {fileID: 8743317100401304778}
  m_Material: {fileID: 0}
  m_IsTrigger: 0
  m_Enabled: 1
  serializedVersion: 3
  m_Convex: 1
  m_CookingOptions: 14
  m_Mesh: {fileID: 2950711049898066331, guid: 4b9a0dc643af26840bc4fdc7c092aa19, type: 3}
--- !u!1 &754191869843724906
GameObject:
  m_ObjectHideFlags: 0
  m_CorrespondingSourceObject: {fileID: 0}
  m_PrefabInstance: {fileID: 0}
  m_PrefabAsset: {fileID: 0}
  serializedVersion: 6
  m_Component:
  - component: {fileID: 754191869843724905}
  m_Layer: 0
  m_Name: rock_03
  m_TagString: Untagged
  m_Icon: {fileID: 0}
  m_NavMeshLayer: 0
  m_StaticEditorFlags: 0
  m_IsActive: 1
--- !u!4 &754191869843724905
Transform:
  m_ObjectHideFlags: 0
  m_CorrespondingSourceObject: {fileID: 0}
  m_PrefabInstance: {fileID: 0}
  m_PrefabAsset: {fileID: 0}
  m_GameObject: {fileID: 754191869843724906}
  m_LocalRotation: {x: 0, y: 0, z: 0, w: 1}
  m_LocalPosition: {x: 0, y: -1, z: 0}
  m_LocalScale: {x: 1, y: 1, z: 1}
  m_Children:
  - {fileID: 5696448027482543833}
  m_Father: {fileID: 0}
  m_RootOrder: 0
  m_LocalEulerAnglesHint: {x: 0, y: 0, z: 0}
--- !u!1001 &754191868896214467
PrefabInstance:
  m_ObjectHideFlags: 0
  serializedVersion: 2
  m_Modification:
    m_TransformParent: {fileID: 754191869843724905}
    m_Modifications:
    - target: {fileID: -927199367670048503, guid: 4b9a0dc643af26840bc4fdc7c092aa19,
        type: 3}
      propertyPath: m_Name
      value: rock_03
      objectReference: {fileID: 0}
    - target: {fileID: -4216859302048453862, guid: 4b9a0dc643af26840bc4fdc7c092aa19,
        type: 3}
      propertyPath: m_LocalPosition.x
      value: 0
      objectReference: {fileID: 0}
    - target: {fileID: -4216859302048453862, guid: 4b9a0dc643af26840bc4fdc7c092aa19,
        type: 3}
      propertyPath: m_LocalPosition.y
      value: -0.5
      objectReference: {fileID: 0}
    - target: {fileID: -4216859302048453862, guid: 4b9a0dc643af26840bc4fdc7c092aa19,
        type: 3}
      propertyPath: m_LocalPosition.z
      value: 0
      objectReference: {fileID: 0}
    - target: {fileID: -4216859302048453862, guid: 4b9a0dc643af26840bc4fdc7c092aa19,
        type: 3}
      propertyPath: m_LocalRotation.x
      value: -0.7071068
      objectReference: {fileID: 0}
    - target: {fileID: -4216859302048453862, guid: 4b9a0dc643af26840bc4fdc7c092aa19,
        type: 3}
      propertyPath: m_LocalRotation.y
      value: -0
      objectReference: {fileID: 0}
    - target: {fileID: -4216859302048453862, guid: 4b9a0dc643af26840bc4fdc7c092aa19,
        type: 3}
      propertyPath: m_LocalRotation.z
      value: -0
      objectReference: {fileID: 0}
    - target: {fileID: -4216859302048453862, guid: 4b9a0dc643af26840bc4fdc7c092aa19,
        type: 3}
      propertyPath: m_LocalRotation.w
      value: 0.7071067
      objectReference: {fileID: 0}
    - target: {fileID: -4216859302048453862, guid: 4b9a0dc643af26840bc4fdc7c092aa19,
        type: 3}
      propertyPath: m_RootOrder
      value: 0
      objectReference: {fileID: 0}
    - target: {fileID: -4216859302048453862, guid: 4b9a0dc643af26840bc4fdc7c092aa19,
        type: 3}
      propertyPath: m_LocalEulerAnglesHint.x
      value: 0
      objectReference: {fileID: 0}
    - target: {fileID: -4216859302048453862, guid: 4b9a0dc643af26840bc4fdc7c092aa19,
        type: 3}
      propertyPath: m_LocalEulerAnglesHint.y
      value: 0
      objectReference: {fileID: 0}
    - target: {fileID: -4216859302048453862, guid: 4b9a0dc643af26840bc4fdc7c092aa19,
        type: 3}
      propertyPath: m_LocalEulerAnglesHint.z
      value: 0
      objectReference: {fileID: 0}
    - target: {fileID: -4216859302048453862, guid: 4b9a0dc643af26840bc4fdc7c092aa19,
        type: 3}
      propertyPath: m_LocalScale.x
      value: 2.3105402
      objectReference: {fileID: 0}
    - target: {fileID: -4216859302048453862, guid: 4b9a0dc643af26840bc4fdc7c092aa19,
        type: 3}
      propertyPath: m_LocalScale.y
      value: 2.3105402
      objectReference: {fileID: 0}
    - target: {fileID: -4216859302048453862, guid: 4b9a0dc643af26840bc4fdc7c092aa19,
        type: 3}
      propertyPath: m_LocalScale.z
      value: 1.4333436
      objectReference: {fileID: 0}
    - target: {fileID: -1504981713932161579, guid: 4b9a0dc643af26840bc4fdc7c092aa19,
        type: 3}
      propertyPath: m_Materials.Array.data[0]
      value: 
      objectReference: {fileID: 2100000, guid: 5ef369dcf17f9b34c8325a903baf6d7a, type: 2}
    m_RemovedComponents: []
  m_SourcePrefab: {fileID: 100100000, guid: 4b9a0dc643af26840bc4fdc7c092aa19, type: 3}
--- !u!1 &8743317100401304778 stripped
GameObject:
  m_CorrespondingSourceObject: {fileID: -927199367670048503, guid: 4b9a0dc643af26840bc4fdc7c092aa19,
    type: 3}
  m_PrefabInstance: {fileID: 754191868896214467}
  m_PrefabAsset: {fileID: 0}
--- !u!4 &5696448027482543833 stripped
Transform:
  m_CorrespondingSourceObject: {fileID: -4216859302048453862, guid: 4b9a0dc643af26840bc4fdc7c092aa19,
    type: 3}
  m_PrefabInstance: {fileID: 754191868896214467}
  m_PrefabAsset: {fileID: 0}
