%YAML 1.1
%TAG !u! tag:unity3d.com,2011:
--- !u!114 &11400000
MonoBehaviour:
  m_ObjectHideFlags: 0
  m_CorrespondingSourceObject: {fileID: 0}
  m_PrefabInstance: {fileID: 0}
  m_PrefabAsset: {fileID: 0}
  m_GameObject: {fileID: 0}
  m_Enabled: 1
  m_EditorHideFlags: 0
  m_Script: {fileID: 11500000, guid: a316df5d0d242de4eb5bdaa82cb41abf, type: 3}
  m_Name: BattleEncounter4
  m_EditorClassIdentifier: 
  EncounterName: EncounterSpring
  Id: 1
  EndType: 1
  HP: 10
  ATK: 0
  STM: 0
  Zones:
  - anchor: {x: 6, y: 24}
    size: {x: 18, y: 3}
    prefabSize: {x: 2, y: 2}
    Prefabs:
    - {fileID: -927199367670048503, guid: 208b9dff275674c488f1c3dc35ae92d4, type: 3}
  - anchor: {x: 6, y: 24}
    size: {x: 18, y: 3}
    prefabSize: {x: 2, y: 2}
    Prefabs:
    - {fileID: -927199367670048503, guid: 208b9dff275674c488f1c3dc35ae92d4, type: 3}
  - anchor: {x: 6, y: 24}
    size: {x: 18, y: 3}
    prefabSize: {x: 2, y: 2}
    Prefabs:
    - {fileID: -927199367670048503, guid: 208b9dff275674c488f1c3dc35ae92d4, type: 3}
  - anchor: {x: 24, y: 6}
    size: {x: 3, y: 18}
    prefabSize: {x: 2, y: 2}
    Prefabs:
    - {fileID: -927199367670048503, guid: 208b9dff275674c488f1c3dc35ae92d4, type: 3}
  - anchor: {x: 24, y: 6}
    size: {x: 3, y: 18}
    prefabSize: {x: 2, y: 2}
    Prefabs:
    - {fileID: -927199367670048503, guid: 208b9dff275674c488f1c3dc35ae92d4, type: 3}
  - anchor: {x: 24, y: 6}
    size: {x: 3, y: 18}
    prefabSize: {x: 2, y: 2}
    Prefabs:
    - {fileID: -927199367670048503, guid: 208b9dff275674c488f1c3dc35ae92d4, type: 3}
  SmallPrefabs:
  - {fileID: 9174127325059805474, guid: a7af4cba1269dca4dad3fb18371907a0, type: 3}
  - {fileID: 8638520017495457398, guid: b59dbb78fa2c2714e9337de223ecf80b, type: 3}
  - {fileID: 1497175015471565254, guid: 46087b6e11c02224bbb9080fc6710fed, type: 3}
  - {fileID: 4478453379476594547, guid: fa1ab2e0aba42f44e8524dcf5369d5f2, type: 3}
  - {fileID: 6864015479973146724, guid: b80cf0d12be3c0146a4ef0a066fbd309, type: 3}
  - {fileID: 8743541164533286993, guid: a174d5209abfcb540bf3869f1833e971, type: 3}
  - {fileID: 8367354093442847554, guid: d55d1db625bcac545a4dfe7f8b842b8a, type: 3}
  - {fileID: 754191869843724906, guid: 2db5972ff524d8e42ae11929bc785fde, type: 3}
  - {fileID: 7518914000465640603, guid: f7a9d293e6c7ffe4588c1fd9b56ea442, type: 3}
  - {fileID: 3365883676112669132, guid: df4e09e8a7188084383983c0d9cb144d, type: 3}
  SmallPrefabsCount: 28
  Mobs:
  - {fileID: 2069985340056617882, guid: 90c92dc34fb16384b840b21616b792f0, type: 3}
  - {fileID: 4481302980002752984, guid: 588dc193492c5da4899db5913e90e5c3, type: 3}
  - {fileID: 6258037991179610001, guid: cc578725d82238e4fb1ef9f17ca88333, type: 3}
  MobsZoneAnchor: {x: -10, y: 10}
  MobsZoneSize: {x: 20, y: 20}
