%YAML 1.1
%TAG !u! tag:unity3d.com,2011:
--- !u!1001 &2523240870027601019
PrefabInstance:
  m_ObjectHideFlags: 0
  serializedVersion: 2
  m_Modification:
    m_TransformParent: {fileID: 0}
    m_Modifications:
    - target: {fileID: 5557085733028038776, guid: fa3ae1904fc686d4182fcd76e7e18335,
        type: 3}
      propertyPath: m_Name
      value: winter_tree (1) Variant
      objectReference: {fileID: 0}
    - target: {fileID: 5557085733028038779, guid: fa3ae1904fc686d4182fcd76e7e18335,
        type: 3}
      propertyPath: m_LocalPosition.x
      value: 0
      objectReference: {fileID: 0}
    - target: {fileID: 5557085733028038779, guid: fa3ae1904fc686d4182fcd76e7e18335,
        type: 3}
      propertyPath: m_LocalPosition.y
      value: -0.5
      objectReference: {fileID: 0}
    - target: {fileID: 5557085733028038779, guid: fa3ae1904fc686d4182fcd76e7e18335,
        type: 3}
      propertyPath: m_LocalPosition.z
      value: 0
      objectReference: {fileID: 0}
    - target: {fileID: 5557085733028038779, guid: fa3ae1904fc686d4182fcd76e7e18335,
        type: 3}
      propertyPath: m_LocalRotation.x
      value: 0
      objectReference: {fileID: 0}
    - target: {fileID: 5557085733028038779, guid: fa3ae1904fc686d4182fcd76e7e18335,
        type: 3}
      propertyPath: m_LocalRotation.y
      value: 0
      objectReference: {fileID: 0}
    - target: {fileID: 5557085733028038779, guid: fa3ae1904fc686d4182fcd76e7e18335,
        type: 3}
      propertyPath: m_LocalRotation.z
      value: 0
      objectReference: {fileID: 0}
    - target: {fileID: 5557085733028038779, guid: fa3ae1904fc686d4182fcd76e7e18335,
        type: 3}
      propertyPath: m_LocalRotation.w
      value: 1
      objectReference: {fileID: 0}
    - target: {fileID: 5557085733028038779, guid: fa3ae1904fc686d4182fcd76e7e18335,
        type: 3}
      propertyPath: m_RootOrder
      value: 0
      objectReference: {fileID: 0}
    - target: {fileID: 5557085733028038779, guid: fa3ae1904fc686d4182fcd76e7e18335,
        type: 3}
      propertyPath: m_LocalEulerAnglesHint.x
      value: 0
      objectReference: {fileID: 0}
    - target: {fileID: 5557085733028038779, guid: fa3ae1904fc686d4182fcd76e7e18335,
        type: 3}
      propertyPath: m_LocalEulerAnglesHint.y
      value: 0
      objectReference: {fileID: 0}
    - target: {fileID: 5557085733028038779, guid: fa3ae1904fc686d4182fcd76e7e18335,
        type: 3}
      propertyPath: m_LocalEulerAnglesHint.z
      value: 0
      objectReference: {fileID: 0}
    - target: {fileID: 604617898973999551, guid: fa3ae1904fc686d4182fcd76e7e18335,
        type: 3}
      propertyPath: m_LocalRotation.x
      value: -0.0000000013411616
      objectReference: {fileID: 0}
    - target: {fileID: 604617898973999551, guid: fa3ae1904fc686d4182fcd76e7e18335,
        type: 3}
      propertyPath: m_LocalRotation.y
      value: -0.9998645
      objectReference: {fileID: 0}
    - target: {fileID: 604617898973999551, guid: fa3ae1904fc686d4182fcd76e7e18335,
        type: 3}
      propertyPath: m_LocalRotation.z
      value: 0.00000008144936
      objectReference: {fileID: 0}
    - target: {fileID: 604617898973999551, guid: fa3ae1904fc686d4182fcd76e7e18335,
        type: 3}
      propertyPath: m_LocalRotation.w
      value: -0.016463926
      objectReference: {fileID: 0}
    - target: {fileID: 604617898973999551, guid: fa3ae1904fc686d4182fcd76e7e18335,
        type: 3}
      propertyPath: m_LocalEulerAnglesHint.y
      value: -181.887
      objectReference: {fileID: 0}
    - target: {fileID: 604617899190929807, guid: fa3ae1904fc686d4182fcd76e7e18335,
        type: 3}
      propertyPath: m_LocalRotation.x
      value: -0.49855918
      objectReference: {fileID: 0}
    - target: {fileID: 604617899190929807, guid: fa3ae1904fc686d4182fcd76e7e18335,
        type: 3}
      propertyPath: m_LocalRotation.y
      value: -0.530389
      objectReference: {fileID: 0}
    - target: {fileID: 604617899190929807, guid: fa3ae1904fc686d4182fcd76e7e18335,
        type: 3}
      propertyPath: m_LocalRotation.z
      value: -0.5014362
      objectReference: {fileID: 0}
    - target: {fileID: 604617899190929807, guid: fa3ae1904fc686d4182fcd76e7e18335,
        type: 3}
      propertyPath: m_LocalRotation.w
      value: 0.46764094
      objectReference: {fileID: 0}
    - target: {fileID: 604617899190929807, guid: fa3ae1904fc686d4182fcd76e7e18335,
        type: 3}
      propertyPath: m_LocalEulerAnglesHint.y
      value: -183.76099
      objectReference: {fileID: 0}
    - target: {fileID: 604617899190929807, guid: fa3ae1904fc686d4182fcd76e7e18335,
        type: 3}
      propertyPath: m_LocalEulerAnglesHint.z
      value: 89.999
      objectReference: {fileID: 0}
    - target: {fileID: 604617899190929807, guid: fa3ae1904fc686d4182fcd76e7e18335,
        type: 3}
      propertyPath: m_LocalPosition.x
      value: 0.16
      objectReference: {fileID: 0}
    - target: {fileID: 604617899190929807, guid: fa3ae1904fc686d4182fcd76e7e18335,
        type: 3}
      propertyPath: m_LocalPosition.z
      value: -1.02
      objectReference: {fileID: 0}
    m_RemovedComponents: []
  m_SourcePrefab: {fileID: 100100000, guid: fa3ae1904fc686d4182fcd76e7e18335, type: 3}
