%YAML 1.1
%TAG !u! tag:unity3d.com,2011:
--- !u!1001 &4855575125534340429
PrefabInstance:
  m_ObjectHideFlags: 0
  serializedVersion: 2
  m_Modification:
    m_TransformParent: {fileID: 0}
    m_Modifications:
    - target: {fileID: 9051100713942588171, guid: 836f4b78f39d73f4086846e6e86e2cc0,
        type: 3}
      propertyPath: m_Name
      value: UAZ-469
      objectReference: {fileID: 0}
    - target: {fileID: 5458540860386044184, guid: 836f4b78f39d73f4086846e6e86e2cc0,
        type: 3}
      propertyPath: m_LocalPosition.x
      value: -1.14
      objectReference: {fileID: 0}
    - target: {fileID: 5458540860386044184, guid: 836f4b78f39d73f4086846e6e86e2cc0,
        type: 3}
      propertyPath: m_LocalPosition.y
      value: 0.031
      objectReference: {fileID: 0}
    - target: {fileID: 5458540860386044184, guid: 836f4b78f39d73f4086846e6e86e2cc0,
        type: 3}
      propertyPath: m_LocalPosition.z
      value: -30.7
      objectReference: {fileID: 0}
    - target: {fileID: 5458540860386044184, guid: 836f4b78f39d73f4086846e6e86e2cc0,
        type: 3}
      propertyPath: m_LocalRotation.x
      value: 0
      objectReference: {fileID: 0}
    - target: {fileID: 5458540860386044184, guid: 836f4b78f39d73f4086846e6e86e2cc0,
        type: 3}
      propertyPath: m_LocalRotation.y
      value: 0
      objectReference: {fileID: 0}
    - target: {fileID: 5458540860386044184, guid: 836f4b78f39d73f4086846e6e86e2cc0,
        type: 3}
      propertyPath: m_LocalRotation.z
      value: 0
      objectReference: {fileID: 0}
    - target: {fileID: 5458540860386044184, guid: 836f4b78f39d73f4086846e6e86e2cc0,
        type: 3}
      propertyPath: m_LocalRotation.w
      value: 1
      objectReference: {fileID: 0}
    - target: {fileID: 5458540860386044184, guid: 836f4b78f39d73f4086846e6e86e2cc0,
        type: 3}
      propertyPath: m_RootOrder
      value: 0
      objectReference: {fileID: 0}
    - target: {fileID: 5458540860386044184, guid: 836f4b78f39d73f4086846e6e86e2cc0,
        type: 3}
      propertyPath: m_LocalEulerAnglesHint.x
      value: 0
      objectReference: {fileID: 0}
    - target: {fileID: 5458540860386044184, guid: 836f4b78f39d73f4086846e6e86e2cc0,
        type: 3}
      propertyPath: m_LocalEulerAnglesHint.y
      value: 0
      objectReference: {fileID: 0}
    - target: {fileID: 5458540860386044184, guid: 836f4b78f39d73f4086846e6e86e2cc0,
        type: 3}
      propertyPath: m_LocalEulerAnglesHint.z
      value: 0
      objectReference: {fileID: 0}
    - target: {fileID: 9051100714183350916, guid: 836f4b78f39d73f4086846e6e86e2cc0,
        type: 3}
      propertyPath: m_IsActive
      value: 1
      objectReference: {fileID: 0}
    m_RemovedComponents: []
  m_SourcePrefab: {fileID: 100100000, guid: 836f4b78f39d73f4086846e6e86e2cc0, type: 3}
